##################################
##0..>...........v...........<2.##
##..%%......................%%..##
##%%....%%%%%%......%%%%%%....%%##
##%%..%%%%%%%%......%%%%%%%%..%%##
##%%..%%%%%%%%......%%%%%%%%..%%##
##%%..%%%%%%%%......%%%%%%%%..%%##
##%%..%%%%%%%%......%%%%%%%%..%%##
##%%..%%%%%%%%......%%%%%%%%..%%##
##%%....%%%%%%......%%%%%%....%%##
##..%%......................%%..##
##3..>...........^...........<1.##
##################################