##################################
##0...%%%%%%##%%%%%%##%%%%%%..2.##
##..%%%%%%%%##%%%%%%##%%%%%%%%..##
##%%######%%##%%%%%%##%%######%%##
##%%##.v%%%%%%......%%%%%%.v##%%##
######s.%%##############%%s.######
##s.s..>s.s.s.s..*s.s.s.s..<s.s.##
######s.%%##############%%s.######
##%%##.^%%%%%%......%%%%%%.^##%%##
##%%######%%##%%%%%%##%%######%%##
##..%%%%%%%%##%%%%%%##%%%%%%%%..##
##3...%%%%%%##%%%%%%##%%%%%%..1.##
##################################