##################################################################
##%%....%%%%%%..5.v.%%%%%%....%%%%....%%%%%%....v.%%%%%%....%%..##
##..0.%%%%%%%%%%v.%%%%%%%%%%3.......%%%%%%%%%%v.%%%%%%%%%%......##
##..%%%%%%%%%%v.%%%%%%%%%%%%%%....%%%%%%%%%%v.%%%%%%%%%%%%%%....##
##%%%%%%%%%%v.%%%%%%%%%%%%%%%%%%%%%%%%%%%%v.%%%%%%%%%%%%%%%%%%..##
##%%%%%%%%%%%%<.%%v.%%%%%%%%%%%%%%%%%%%%%%%%<.%%v.%%%%%%%%%%%%..##
##%%%%%%%%%%%%%%##%%%%%%%%%%%%%%%%%%%%%%%%%%%%##%%%%%%%%%%%%%%..##
##4.%%%%%%%%%%^.%%>.%%%%%%%%%%1.i.%%%%%%%%%%^.%%>.%%%%%%%%%%8...##
##....%%%%%%%%%%%%%%^.%%%%%%..i.....%%%%%%%%%%%%%%^.%%%%%%......##
##%%..##%%%%%%%%%%^.%%%%%%##....%%..##%%%%%%%%%%^.%%%%%%##..%%..##
##%%%%..i.2.%%%%^.%%%%6.....%%....%%....9.%%%%^.%%%%......%%%%..##
##%%%%%%%%i...^.%%%%....%%%%%%%%..%%%%%%....^.%%%%....%%%%%%%%..##
##..............................................................##
##%%....%%%%%%....v.%%%%%%....%%%%....%%%%%%....v.%%%%%%....%%..##
##....%%%%%%%%%%v.%%%%%%%%%%........%%%%%%%%%%v.%%%%%%%%%%......##
##..%%%%%%%%%%v.%%%%%%%%%%%%%%....%%%%%%%%%%v.%%%%%%%%%%%%%%....##
##%%%%%%%%%%v.%%%%%%%%%%%%%%%%%%%%%%%%%%%%v.%%%%%%%%%%%%%%%%%%..##
##%%%%%%%%%%%%<.%%v.%%%%%%%%%%%%%%%%%%%%%%%%<.%%v.%%%%%%%%%%%%..##
##%%%%%%%%%%%%%%##%%%%%%%%%%%%%%%%%%%%%%%%%%%%##%%%%%%%%%%%%%%..##
##..%%%%%%%%%%^.%%>.%%%%%%%%%%....%%%%%%%%%%^.%%>.%%%%%%%%%%....##
##....%%%%%%%%%%%%%%^.%%%%%%........%%%%%%%%%%%%%%^.%%%%%%......##
##%%..##%%%%%%%%%%^.%%%%%%##..%%%%..##%%%%%%%%%%^.%%%%%%##..%%..##
##%%%%......%%%%^.%%%%......%%%%%%%%......%%%%^.%%%%......%%%%..##
##%%%%%%%%....^.%%%%....%%%%%%%%%%%%%%%%....^.%%%%....%%%%%%%%..##
##################################################################